…
Or not, in which case we get the exact metrics from each fold (maybe
useful if we want to compute our own summaries).

``` r
collect_metrics(ames_res, FALSE)
#> # A tibble: 200 x 6
#>    id     long_df lat_df .metric .estimator .estimate
#>    <chr>    <int>  <int> <chr>   <chr>          <dbl>
#>  1 Fold01       3      6 rmse    standard       0.146
#>  2 Fold01       3      6 rsq     standard       0.393
#>  3 Fold01      10     10 rmse    standard       0.136
#>  4 Fold01      10     10 rsq     standard       0.473
#>  5 Fold01       8      7 rmse    standard       0.142
#>  6 Fold01       8      7 rsq     standard       0.428
#>  7 Fold01       3     10 rmse    standard       0.137
#>  8 Fold01       3     10 rsq     standard       0.468
#>  9 Fold01       7     10 rmse    standard       0.136
#> 10 Fold01       7     10 rsq     standard       0.474
#> # … with 190 more rows
```
…
Let’s look at one value of predictions:

``` r
ames_res_with_pred$.predictions[[1]]
#> # A tibble: 2,210 x 5
#>    .pred  .row long_df lat_df Sale_Price
#>    <dbl> <int>   <int>  <int>      <dbl>
#>  1  5.34     9       3      6       5.25
#>  2  5.43    32       3      6       5.60
#>  3  5.42    33       3      6       5.34
#>  4  5.42    35       3      6       5.79
#>  5  5.31    71       3      6       5.41
#>  6  5.30    75       3      6       5.17
#>  7  5.14    96       3      6       5.30
#>  8  5.14   121       3      6       5.38
#>  9  5.06   124       3      6       5.22
#> 10  5.06   125       3      6       5.13
#> # … with 2,200 more rows
```
…
Yes, for each evaluation/parameter set, we’ve got the out-of-sample
predictions (like the docs say, but it’s nice to verify).

Let’s use the built in helper to get them, too:

``` r
collect_predictions(ames_res_with_pred)
#> # A tibble: 21,990 x 6
#>    id     .pred  .row long_df lat_df Sale_Price
#>    <chr>  <dbl> <int>   <int>  <int>      <dbl>
#>  1 Fold01  5.34     9       3      6       5.25
#>  2 Fold01  5.43    32       3      6       5.60
#>  3 Fold01  5.42    33       3      6       5.34
#>  4 Fold01  5.42    35       3      6       5.79
#>  5 Fold01  5.31    71       3      6       5.41
#>  6 Fold01  5.30    75       3      6       5.17
#>  7 Fold01  5.14    96       3      6       5.30
#>  8 Fold01  5.14   121       3      6       5.38
#>  9 Fold01  5.06   124       3      6       5.22
#> 10 Fold01  5.06   125       3      6       5.13
#> # … with 21,980 more rows
```
…
#> $blueprint
#> Recipe blueprint: 
#>  
#> # Predictors: 0 
#>   # Outcomes: 0 
#>    Intercept: FALSE 
#> Novel Levels: FALSE 
#> 
#> attr(,"class")
#> [1] "action_recipe" "action_pre"    "action"       
#> 
#> 
#> $mold
#> $mold$predictors
#> # A tibble: 1,978 x 9
#>    Longitude_ns_1 Longitude_ns_2 Longitude_ns_3 Latitude_ns_1 Latitude_ns_2
#>             <dbl>          <dbl>          <dbl>         <dbl>         <dbl>
#>  1          0.533          0.366        -0.0698             0      0.000812
#>  2          0.533          0.358        -0.0375             0      0.00528 
#>  3          0.268          0.513        -0.298              0      0       
#>  4          0.268          0.512        -0.298              0      0       
#>  5          0.376          0.467        -0.254              0      0       
#>  6          0.376          0.468        -0.254              0      0       
#>  7          0.394          0.459        -0.244              0      0       
#>  8          0.265          0.514        -0.299              0      0       
#>  9          0.274          0.510        -0.296              0      0       
#> 10          0.360          0.475        -0.262              0      0       
#> # … with 1,968 more rows, and 4 more variables: Latitude_ns_3 <dbl>,
#> #   Latitude_ns_4 <dbl>, Latitude_ns_5 <dbl>, Latitude_ns_6 <dbl>
#> 
#> $mold$outcomes
#> # A tibble: 1,978 x 1
#>    Sale_Price
#>         <dbl>
#>  1       5.24
#>  2       5.39
#>  3       5.28
#>  4       5.29
#>  5       5.33
#>  6       5.28
#>  7       5.37
#>  8       5.28
#>  9       5.26
#> 10       5.23
#> # … with 1,968 more rows
…
Let’s have a look at the results:

``` r
lm_search
#> #  10-fold cross-validation using stratification 
#> # A tibble: 170 x 5
#>    splits           id     .metrics          .notes           .iter
#>  * <list>           <chr>  <list>            <list>           <dbl>
#>  1 <split [2K/221]> Fold01 <tibble [10 × 5]> <tibble [0 × 1]>     0
#>  2 <split [2K/220]> Fold02 <tibble [10 × 5]> <tibble [0 × 1]>     0
#>  3 <split [2K/220]> Fold03 <tibble [10 × 5]> <tibble [0 × 1]>     0
#>  4 <split [2K/220]> Fold04 <tibble [10 × 5]> <tibble [0 × 1]>     0
#>  5 <split [2K/220]> Fold05 <tibble [10 × 5]> <tibble [0 × 1]>     0
#>  6 <split [2K/220]> Fold06 <tibble [10 × 5]> <tibble [0 × 1]>     0
#>  7 <split [2K/220]> Fold07 <tibble [10 × 5]> <tibble [0 × 1]>     0
#>  8 <split [2K/220]> Fold08 <tibble [10 × 5]> <tibble [0 × 1]>     0
#>  9 <split [2K/220]> Fold09 <tibble [10 × 5]> <tibble [0 × 1]>     0
#> 10 <split [2K/218]> Fold10 <tibble [10 × 5]> <tibble [0 × 1]>     0
#> # … with 160 more rows
```
…
This is similar again, for each fold/resample in each iteration we get a
set of metrics over a range of values of the parameters.

And what about `collect_metrics()`?

``` r
collect_metrics(lm_search)
#> # A tibble: 42 x 8
#>    long_df lat_df .iter .metric .estimator  mean     n std_err
#>      <int>  <int> <dbl> <chr>   <chr>      <dbl> <int>   <dbl>
#>  1       1      1     9 rmse    standard   0.163    10 0.00229
#>  2       1      1     9 rsq     standard   0.171    10 0.0126 
#>  3       1      5    10 rmse    standard   0.143    10 0.00222
#>  4       1      5    10 rsq     standard   0.360    10 0.0156 
#>  5       1      9     3 rmse    standard   0.136    10 0.00245
#>  6       1      9     3 rsq     standard   0.425    10 0.0169 
#>  7       1     12     7 rmse    standard   0.135    10 0.00244
#>  8       1     12     7 rsq     standard   0.431    10 0.0162 
#>  9       1     15     1 rmse    standard   0.135    10 0.00249
#> 10       1     15     1 rsq     standard   0.429    10 0.0166 
#> # … with 32 more rows
```

Again, something very similar, although now we get additional values,
again because of iterations (we get the average of the metric for each
combination of parameters in each iteration):

``` r
lm_search %>% 
    collect_metrics() %>% 
    arrange(.iter, long_df, lat_df) %>% 
    filter(.metric == "rmse")
#> # A tibble: 21 x 8
#>    long_df lat_df .iter .metric .estimator  mean     n std_err
#>      <int>  <int> <dbl> <chr>   <chr>      <dbl> <int>   <dbl>
#>  1       4      3     0 rmse    standard   0.143    10 0.00231
#>  2       5      4     0 rmse    standard   0.139    10 0.00227
#>  3       7     15     0 rmse    standard   0.133    10 0.00240
#>  4      12      8     0 rmse    standard   0.129    10 0.00251
#>  5      13     11     0 rmse    standard   0.130    10 0.00239
#>  6       1     15     1 rmse    standard   0.135    10 0.00249
#>  7      15      1     2 rmse    standard   0.142    10 0.00245
#>  8       1      9     3 rmse    standard   0.136    10 0.00245
#>  9       9      1     4 rmse    standard   0.144    10 0.00248
#> 10      15      8     5 rmse    standard   0.129    10 0.00233
#> # … with 11 more rows
```
…
